<?xml version="1.0" encoding="utf-8"?>
<!-- Generator: Adobe Illustrator 16.0.3, SVG Export Plug-In . SVG Version: 6.00 Build 0)  -->
<!DOCTYPE svg PUBLIC "-//W3C//DTD SVG 1.1//EN" "http://www.w3.org/Graphics/SVG/1.1/DTD/svg11.dtd">
<svg version="1.1" id="Ebene_1" xmlns="http://www.w3.org/2000/svg" xmlns:xlink="http://www.w3.org/1999/xlink" x="0px" y="0px"
	 width="120.2px" height="81.4px" viewBox="0 0 120.2 81.4" style="enable-background:new 0 0 120.2 81.4;" xml:space="preserve">
<style type="text/css">
<![CDATA[
	.st0{fill:#2E90D0;}
	.st1{fill:#FFFFFF;}
]]>
</style>
<rect x="0" y="-1.8" class="st0" width="120.2" height="85"/>
<path class="st1" d="M86,60.1c0,0,6.1-3,10.2-6.7c4-3.6,9.1-9.9,9.1-9.9l0.9,0.9c0,0-2.7,5-7.6,9.7c-4.9,4.8-12.5,9.3-12.5,9.3
	s-6-3.7-10.7-8.7c-4.4-4.7-7.3-10.3-7.3-10.3s-0.4-0.9-0.3-1.6c0.1-0.9,0.5-1.1,0.5-1.1S76,50,78.4,52.6C80.8,55.1,86,60.1,86,60.1z
	"/>
<path class="st1" d="M73.9,33.4c0,0,6-1.8,11.3-4.8c3.7-2.1,10.5-7.3,10.5-7.3l0.9,0.8c0,0-3.3,3.8-9,7.4c-5.6,3.5-14,6.6-14,6.6
	s-5.8-3.6-10-8.1c-4-4.2-6.1-9-6.1-9s-0.5-1-0.4-1.6c0.1-0.8,0.8-0.6,0.8-0.6c0,0,4.4,4.8,8.9,9.4C70.2,30.1,73.9,33.4,73.9,33.4z"
	/>
<path class="st1" d="M75.5,40.2c1.7-0.4,3.8,0.7,4.8,2.5c1,1.8,0.5,3.7-1.2,4.1c-1.7,0.5-4-0.7-5-2.5C73.1,42.4,73.8,40.6,75.5,40.2
	z"/>
<path class="st1" d="M66.5,16.4c1.8-0.2,3.8,0.9,4.7,2.5c0.8,1.6,0.1,3.1-1.7,3.3c-1.8,0.3-4-0.9-4.8-2.5
	C63.8,18.1,64.7,16.6,66.5,16.4z"/>
<path class="st1" d="M34.4,56.6c0,0,10.1-3.5,18.7-8.4c7-3.9,18.1-12.2,18.1-12.2l1,1c0,0-5.9,5.9-15.3,11.8C47.4,54.9,33,61,33,61
	s-7.9-4.7-13.1-11.1c-4.8-6-6.6-13.1-6.6-13.1s-0.2-1.1,0.3-2.1c0.5-1.1,1.3-1.2,1.3-1.2l10.6,13.3L34.4,56.6z"/>
<path class="st1" d="M26.2,31.8c2.8-0.5,5.7,0.9,6.4,3.1c0.8,2.3-0.9,4.6-3.8,5.3c-3,0.7-6.1-0.8-6.7-3.2
	C21.4,34.6,23.3,32.3,26.2,31.8z"/>
</svg>
